{
  "times": {
    "a": ["07:00", "15:30"],
    "b": ["07:30", "16:00"]
  },
  "start-date": "2023-02-01",
  "start-index": 2,
  "days": [
    "b-abb--",
    "bb-ab--",
    "bba-b--",
    "bbab---"
  ]
}
